\relax 
\citation{middlebox}
\citation{clickos}
\citation{clickos}
\citation{serversw}
\citation{con_middlebox,xOMB}
\citation{mid_deploy2}
\@writefile{toc}{\contentsline {section}{\numberline {I}Introduction}{1}}
\@writefile{lof}{\contentsline {figure}{\numberline {1}{\ignorespaces A flow with three rules\relax }}{1}}
\providecommand*\caption@xref[2]{\@setref\relax\@undefined{#1}}
\newlabel{fig:factors}{{1}{1}}
\citation{?}
\citation{?}
\citation{?}
\@writefile{toc}{\contentsline {section}{\numberline {II}Problem Formulation}{2}}
\@writefile{toc}{\contentsline {subsection}{\numberline {\unhbox \voidb@x \hbox {II-A}}Background}{2}}
\@writefile{lof}{\contentsline {figure}{\numberline {2}{\ignorespaces Policy translated in rules\relax }}{2}}
\newlabel{fig:ploicy}{{2}{2}}
\@writefile{toc}{\contentsline {subsection}{\numberline {\unhbox \voidb@x \hbox {II-B}}Description and Formulation of Min\_Max problem}{2}}
\citation{multi_commodity}
\newlabel{eq1}{{1}{3}}
\newlabel{eq2}{{2}{3}}
\newlabel{eq3}{{3}{3}}
\newlabel{eq4}{{4}{3}}
\newlabel{eq5}{{5}{3}}
\newlabel{eq6}{{6}{3}}
\newlabel{eq7}{{7}{3}}
\newlabel{eq8}{{8}{3}}
\@writefile{toc}{\contentsline {section}{\numberline {III}Proof}{3}}
\@writefile{toc}{\contentsline {section}{\numberline {IV}HEURISTICS AND ALGORITHM DESIGN}{4}}
\@writefile{toc}{\contentsline {subsection}{\numberline {\unhbox \voidb@x \hbox {IV-A}}Global optimal solution are difficult to compute }{4}}
\@writefile{toc}{\contentsline {subsection}{\numberline {\unhbox \voidb@x \hbox {IV-B}}Algorithm Description}{4}}
\@writefile{loa}{\contentsline {algorithm}{\numberline {1}{\ignorespaces Rule placement algorithm\relax }}{4}}
\newlabel{euclid}{{1}{4}}
\@writefile{toc}{\contentsline {section}{\numberline {V}Implementation}{4}}
\citation{datacenter}
\citation{iperf}
\@writefile{toc}{\contentsline {subsection}{\numberline {\unhbox \voidb@x \hbox {V-A}}Tools}{5}}
\@writefile{toc}{\contentsline {subsection}{\numberline {\unhbox \voidb@x \hbox {V-B}}Module added}{5}}
\@writefile{toc}{\contentsline {subsubsection}{\numberline {\unhbox \voidb@x \hbox {V-B}1}Handling ARP messages}{5}}
\@writefile{toc}{\contentsline {subsubsection}{\numberline {\unhbox \voidb@x \hbox {V-B}2}Link load capture}{5}}
\@writefile{toc}{\contentsline {subsubsection}{\numberline {\unhbox \voidb@x \hbox {V-B}3}Route Computation}{5}}
\@writefile{toc}{\contentsline {subsubsection}{\numberline {\unhbox \voidb@x \hbox {V-B}4}Rule placement}{5}}
\@writefile{toc}{\contentsline {section}{\numberline {VI}Performance Evaluation}{5}}
\@writefile{toc}{\contentsline {subsection}{\numberline {\unhbox \voidb@x \hbox {VI-A}}Tree topology with two rules}{5}}
\citation{Nanxi}
\bibcite{Floodlight}{1}
\bibcite{enforcemid}{2}
\bibcite{place middlebox}{3}
\bibcite{con_middlebox}{4}
\bibcite{xOMB}{5}
\bibcite{Nanxi}{6}
\@writefile{lof}{\contentsline {figure}{\numberline {3}{\ignorespaces Delay\relax }}{6}}
\newlabel{fig:tDelay}{{3}{6}}
\@writefile{lof}{\contentsline {figure}{\numberline {4}{\ignorespaces Maximum link load\relax }}{6}}
\newlabel{fig:tMax}{{4}{6}}
\@writefile{toc}{\contentsline {subsection}{\numberline {\unhbox \voidb@x \hbox {VI-B}}Graph topology with one rule}{6}}
\@writefile{toc}{\contentsline {section}{\numberline {VII}Conclusion}{6}}
\@writefile{lof}{\contentsline {figure}{\numberline {5}{\ignorespaces Maximum link load\relax }}{6}}
\newlabel{fig:gsMax}{{5}{6}}
\@writefile{lof}{\contentsline {figure}{\numberline {6}{\ignorespaces Delay\relax }}{6}}
\newlabel{fig:gsDelay}{{6}{6}}
\@writefile{toc}{\contentsline {section}{References}{6}}
\bibcite{clickos}{7}
\bibcite{serversw}{8}
\bibcite{middlebox}{9}
\bibcite{datacenter}{10}
\bibcite{iperf}{11}
\bibcite{mininet}{12}
\bibcite{mid_deploy2}{13}
\bibcite{multi_commodity}{14}
\@writefile{lof}{\contentsline {figure}{\numberline {7}{\ignorespaces Maximum link load\relax }}{7}}
\newlabel{fig:gwMax}{{7}{7}}
\@writefile{lof}{\contentsline {figure}{\numberline {8}{\ignorespaces Delay\relax }}{7}}
\newlabel{fig:gwDelay}{{8}{7}}
